bb.make_node_op_equals,0x403ade
bb.mode_create_from_ref,0x403fa0
bb.mode_compile,0x403b3a
bb.xnmalloc,0x405e71
bb.x2realloc,0x40604b
bb.x2nrealloc,0x405ec1
bb.process_files,0x403051
bb.chmodat,0x403835
bb.process_file,0x402a85
bb.mode_adjust,0x403fe7
bb.describe_change,0x40293a
bb.strmode,0x40390a
bb.ftypelet,0x40385f
bb.mode_changed,0x402862
