bb.group_nodes_into_DFAstates,0x41cd38
bb.check_arrival_expand_ecl_sub,0x41bd6b
bb.check_arrival_add_next_nodes,0x41b934
bb.expand_bkref_cache,0x41bf30
bb.check_arrival_expand_ecl,0x41bbf7
bb.match_ctx_add_entry,0x41e00d
bb.match_ctx_add_sublast,0x41e57b
bb.find_subexp_node,0x41b120
bb.get_subexp_sub,0x41b049
bb.check_arrival,0x41b1ac
bb.check_dst_limits_calc_pos,0x41924e
bb.check_dst_limits_calc_pos_1,0x418fcf
bb.check_subexp_limits,0x41931b
bb.sub_epsilon_src_nodes,0x418bd5
bb.clean_state_log_if_needed,0x418683
bb.build_sifted_states,0x418478
bb.sift_states_iter_mb,0x419b69
bb.check_dst_limits,0x418e63
bb.update_cur_sifted_state,0x4188c7
bb.sift_states_bkref,0x419694
bb.add_epsilon_src_nodes,0x418aa6
bb.update_regs,0x418133
bb.free_fail_stack_return,0x41809d
bb.pop_fail_stack,0x417b3f
bb.push_fail_stack,0x41796f
bb.proceed_next_node,0x417430
bb.check_node_accept,0x41da1a
bb.check_halt_node_context,0x4172c6
bb.find_recover_state,0x41a03f
bb.merge_state_with_log,0x419db9
bb.transit_state_bkref,0x41a566
bb.get_subexp,0x41aad2
bb.search_cur_bkref_entry,0x41e32d
bb.merge_state_array,0x41876d
bb.sift_states_backward,0x4182d7
bb.sift_ctx_init,0x41e687
bb.match_ctx_free,0x41dfcc
bb.prune_impossible_nodes,0x416a85
bb.set_regs,0x417c8d
bb.match_ctx_clean,0x41debb
bb.check_matching,0x416daa
bb.check_subexp_matching_top,0x41a0e9
bb.match_ctx_add_subtop,0x41e403
bb.check_halt_state_context,0x41738d
bb.extend_buffers,0x41dbf5
bb.transit_state,0x419c43
bb.transit_state_mb,0x41a1e4
bb.check_node_accept_bytes,0x41d5de
bb.build_trtable,0x41c310
bb.match_ctx_init,0x41dd7d
bb.re_copy_regs,0x415a1e
bb.re_search_internal,0x415cc4
bb.free_tree,0x415505
bb.mark_opt_subexp,0x41545d
bb.parse_bracket_symbol,0x4143f4
bb.build_charclass,0x4145ba
bb.build_equiv_class,0x414560
bb.parse_bracket_element,0x4142a9
bb.build_collating_symbol,0x413915
bb.build_range_exp,0x413554
bb.parse_byte,0x41351d
bb.duplicate_tree,0x41552c
bb.parse_dup_op,0x412fec
bb.fetch_number,0x4151b9
bb.parse_reg_exp,0x4121f2
bb.parse_branch,0x4123f4
bb.build_charclass_op,0x414f21
bb.parse_sub_exp,0x412e58
bb.peek_token_bracket,0x411ea3
bb.duplicate_node_closure,0x4108e1
bb.duplicate_node,0x410eaa
bb.search_duplicated_node,0x410e11
bb.calc_next,0x4105bf
bb.calc_first,0x4104d1
bb.lower_subexps,0x410204
bb.lower_subexp,0x4102e0
bb.create_tree,0x4152da
bb.create_token_tree,0x415311
bb.optimize_subexps,0x41008c
bb.calc_inveclosure,0x410fdc
bb.calc_eclosure,0x41111a
bb.calc_eclosure_iter,0x4111fd
bb.preorder,0x40ffd1
bb.postorder,0x40fef3
bb.init_word_char,0x40f39a
bb.create_initial_state,0x40f5ad
bb.analyze,0x40fb6e
bb.free_workarea_compile,0x40f51d
bb.parse,0x4120c6
bb.fetch_token,0x4115cf
bb.peek_token,0x411612
bb.free_dfa_content,0x40ea3e
bb.free_token,0x4154a0
bb.free_charset,0x4152a0
bb.re_compile_fastmap_iter,0x40e35c
bb.free_state,0x40dc7d
bb.register_state,0x40dac9
bb.create_cd_newstate,0x40def3
bb.re_acquire_state_context,0x40d99c
bb.create_ci_newstate,0x40dd21
bb.re_acquire_state,0x40d87b
bb.calc_state_hash,0x40d821
bb.re_dfa_add_node,0x40d486
bb.re_node_set_remove_at,0x40d406
bb.re_node_set_contains,0x40d34e
bb.re_node_set_compare,0x40d2bf
bb.re_node_set_insert_last,0x40d20a
bb.re_node_set_insert,0x40d01d
bb.re_node_set_merge,0x40cc5b
bb.re_node_set_init_union,0x40c953
bb.re_node_set_add_intersect,0x40c56a
bb.re_node_set_init_copy,0x40c48d
bb.re_node_set_init_2,0x40c3b2
bb.re_node_set_init_1,0x40c32b
bb.re_node_set_alloc,0x40c2c1
bb.re_string_destruct,0x40c0ed
bb.re_string_fetch_byte_case,0x40bf63
bb.re_string_peek_byte_case,0x40bde1
bb.re_string_reconstruct,0x40b11c
bb.re_string_context_at,0x40c13b
bb.re_string_skip_chars,0x40ae78
bb.build_wcs_upper_buffer,0x40a3d6
bb.build_upper_buffer,0x40afab
bb.build_wcs_buffer,0x40a0a9
bb.re_string_translate_buffer,0x40b07a
bb.re_string_construct,0x409c66
bb.re_string_realloc_buffers,0x409e41
bb.re_string_allocate,0x409b1d
bb.re_string_construct_common,0x409fb8
bb.re_string_wchar_at,0x409ac1
bb.re_string_char_size_at,0x409a4d
bb.bitset_mask,0x4099e2
bb.bitset_merge,0x409977
bb.bitset_not,0x409927
bb.bitset_copy,0x4098fc
bb.bitset_set_all,0x4098d7
bb.bitset_empty,0x4098b2
bb.bitset_contain,0x40985b
bb.bitset_clear,0x4097e3
bb.bitset_set,0x409774
bb.xdectoimax,0x4072df
bb.xnumtoimax,0x4071b4
bb.max_out,0x40488a
bb.rpl_snprintf,0x41e6ef
bb.get_format_flags,0x40470f
bb.parse_patterns,0x404468
bb.rpl_re_compile_pattern,0x40e1d7
bb.re_compile_internal,0x40eca1
bb.init_dfa,0x40f01d
bb.extract_regexp,0x4042fa
bb.parse_repeat_count,0x4041eb
bb.check_for_offset,0x404185
bb.new_control_record,0x4040e4
bb.split_file,0x403a78
bb.rpl_re_search,0x415658
bb.re_search_stub,0x4156a9
bb.rpl_re_compile_fastmap,0x40e263
bb.process_regexp,0x4037a4
bb.regexp_error,0x4036e4
bb.process_line_count,0x403602
bb.create_output_file,0x403c96
bb.handle_line_error,0x40355f
bb.dump_rest_of_file,0x403535
bb.save_line_to_file,0x40403c
bb.write_to_file,0x40343e
bb.fd_reopen,0x4050f7
bb.set_input_file,0x4033c1
bb.no_more_lines,0x4033a2
bb.find_line,0x403287
bb.remove_line,0x403134
bb.get_first_line_in_buffer,0x4030ee
bb.load_buffer,0x402f45
bb.save_buffer,0x402ed3
bb.free_buffer,0x402e64
bb.get_new_buffer,0x402dc9
bb.create_new_buffer,0x402d67
bb.record_line_starts,0x402c22
bb.keep_new_line,0x402b29
bb.new_line_control,0x402af2
bb.clear_line_control,0x402ac4
bb.read_input,0x402a50
bb.save_to_hold_area,0x402a18
bb.delete_all_files,0x403d9c
bb.make_filename,0x403be5
bb.cleanup,0x402967
bb.close_output_file,0x403e4a
