bb.string_to_integer,0x4041f8
bb.head_file,0x4040bf
bb.head,0x403ef8
bb.head_lines,0x403d4e
bb.head_bytes,0x403c5d
bb.elide_tail_lines_file,0x403b92
bb.elide_tail_lines_seekable,0x40381e
bb.elide_tail_lines_pipe,0x403310
bb.elide_tail_bytes_file,0x403212
bb.elide_tail_bytes_pipe,0x402c2c
bb.full_read,0x404821
bb.offtostr,0x4048a2
bb.elseek,0x402b7f
bb.copy_fd,0x402acb
bb.xwrite_stdout,0x402a48
bb.write_header,0x402a02
bb.diagnose_copy_fd_failure,0x402966
bb.usage,0x40283b
