bb.try_nocreate,0x404ca0
bb.try_dir,0x404c7d
bb.try_file,0x404c3c
bb.rpl_remove,0x406d7c
bb.main,0x402afb
bb.maybe_close_stdout,0x402ac2
bb.mkdtemp_len,0x402a77
bb.mkstemp_len,0x402a2c
bb.gen_tempname_len,0x404d07
bb.count_consecutive_X_s,0x4029e9
bb.usage,0x402882
