bb.fd_safer_flag,0x417f10
bb.dup_safer_flag,0x417f65
bb.save_token,0x413719
bb.readtokens0,0x413916
bb.readtokens0_init,0x413676
bb.posix2_version,0x410c64
bb.key_init,0x40bb07
bb.sighandler,0x40b9d3
bb.check_ordering_compatibility,0x40b843
bb.incompatible_options,0x40b817
bb.badfieldspec,0x40b7d5
bb.insertkey,0x40b775
bb.sort,0x40b391
bb.merge,0x40aec0
bb.check_output,0x40ae5f
bb.check_inputs,0x40adbc
bb.avoid_trashing_input,0x40ab98
bb.sortlines_thread,0x40a889
bb.sortlines,0x40a8ec
bb.merge_loop,0x40a7e3
bb.queue_check_insert_parent,0x40a75c
bb.queue_check_insert,0x40a6a2
bb.mergelines_node,0x40a1eb
bb.write_unique,0x40a160
bb.heap_remove_top,0x40ff40
bb.heapify_down,0x40ffd0
bb.queue_pop,0x40a0e3
bb.heap_insert,0x40fe97
bb.heapify_up,0x4100fb
bb.queue_insert,0x40a082
bb.queue_init,0x40a02a
bb.heap_alloc,0x40fdf6
bb.unlock_node,0x40a00b
bb.lock_node,0x409fec
bb.compare_nodes,0x409f74
bb.init_node,0x409d7d
bb.merge_tree_init,0x409c84
bb.sequential_sort,0x409a08
bb.mergelines,0x4098e9
bb.mergefiles,0x409853
bb.mergefps,0x408c1e
bb.open_input_files,0x408b08
bb.check,0x4087da
bb.write_line,0x4086c4
bb.compare,0x40857e
bb.keycompare,0x407b5b
bb.xmemcoll0,0x414bfd
bb.memcoll0,0x4185fa
bb.key_warnings,0x40748f
bb.key_to_opts,0x40733b
bb.default_key_compare,0x4072a6
bb.debug_line,0x407243
bb.debug_key,0x406fd6
bb.key_numeric,0x406f99
bb.mark_key,0x406f36
bb.debug_width,0x406ed2
bb.compare_random,0x4067b0
bb.xstrxfrm,0x4066fd
bb.random_md5_state_init,0x406668
bb.getmonth,0x406501
bb.general_numcompare,0x4063ed
bb.nan_compare,0x40636f
bb.strnumcmp,0x414285
bb.human_numcompare,0x406241
bb.find_unit_order,0x4061cc
bb.traverse_raw_number,0x4060f0
bb.limfield,0x405ae0
bb.begfield,0x405952
bb.buffer_linelim,0x40592e
bb.initbuf,0x40587d
bb.sort_buffer_size,0x405667
bb.physmem_available,0x4108ec
bb.default_sort_size,0x405434
bb.specify_nthreads,0x4053a0
bb.physmem_total,0x410817
bb.specify_sort_size,0x40519a
bb.uinttostr,0x4102bc
bb.specify_nmerge,0x404fbb
bb.inittables,0x404dc8
bb.struct_month_cmp,0x404d8d
bb.zaptemp,0x404c7d
bb.add_temp_dir,0x404c13
bb.open_temp,0x404a67
bb.create_temp,0x404a48
bb.maybe_create_temp,0x404907
bb.pipe_fork,0x40477f
bb.rpl_pipe2,0x4109fd
bb.move_fd,0x40474d
bb.xfclose,0x4046bc
bb.xfopen,0x404677
bb.stream_open,0x404552
bb.mkostemp_safer,0x413c86
bb.create_temp_file,0x404390
bb.exit_cleanup,0x40434e
bb.cleanup,0x404309
bb.reap_all,0x4042eb
bb.reap_some,0x4042d5
bb.reap_exited,0x4042b3
bb.wait_proc,0x40428d
bb.register_proc,0x4041cb
bb.delete_proc,0x404245
bb.reap,0x4040dd
bb.proctab_comparator,0x4040ac
bb.proctab_hasher,0x404081
bb.cs_leave,0x40404d
bb.cs_enter,0x404014
bb.usage,0x403d70
bb.sort_die,0x403d11
bb.inttostr,0x4101be
bb.async_safe_die,0x403c65
