bb.disable_core_dumps,0x4030e6
bb.block_cleanup_and_chld,0x40300c
bb.install_cleanup,0x402f3a
bb.install_sigchld,0x402ee4
bb.unblock_signal,0x402e79
bb.parse_duration,0x402db8
bb.apply_time_suffix,0x402d33
bb.usage,0x402bf2
bb.cleanup,0x402a81
bb.send_sig,0x402a43
bb.settimeout,0x4028f0
