bb.print_page,0x405020
bb.add_line_number.isra.0,0x4048a0
bb.skip_to_page,0x404640
bb.init_fps,0x404270
bb.init_header,0x4040a0
bb.print_header,0x403c50
bb.pad_across_to,0x403c00
bb.print_white_space,0x403b60
bb.init_store_cols,0x403260
bb.reset_status,0x4030b0
bb.cols_ready_to_print,0x402ec0
bb.cleanup,0x403210
bb.getoptarg,0x4057b0
bb.first_last_page,0x4035e0
bb.usage,0x4055e0
bb.parse_column_count,0x403730
bb.getoptnum,0x403710
