bb.swap,0x405a60
bb.next_line,0x403080
bb.input_size,0x403570
bb.write_permuted_numbers,0x402f40
bb.write_random_numbers,0x403360
bb.write_random_lines,0x4033e0
bb.randperm_new,0x405bf0
bb.read_input_reservoir_sampling,0x4031d0
bb.read_input,0x4030a0
bb.usage,0x403770
bb.randperm_bound,0x405bd0
bb.input_from_argv,0x402fe0
