bb.bkm_scale_by_power,0x4094b0
bb.bkm_scale,0x409480
bb.__isspace,0x409460
bb.rpl_fcntl,0x409eb0
bb.set_char_quoting,0x408bc0
bb.blake2b_final,0x406aa0
bb.blake2b_update,0x406960
bb.blake2b_init,0x4068d0
bb.blake2b_init_param,0x406850
bb.blake2b_compress,0x404000
bb.blake2b_init0,0x403f00
bb.rpl_getdelim,0x40b7c0
bb.blake2b_stream,0x406b90
bb.split_3,0x403010
bb.usage,0x403db0
bb.rpl_getopt_internal,0x40b000
bb.exchange,0x40a0d0
bb.process_long_option,0x40a320
bb.set_program_name,0x406f80
