bb.mem_cd_iconv,0x4091f0
bb.get_nth_bit,0x407050
bb.readtoken,0x4070a0
bb.set_nth_bit,0x407070
bb.print_factors_single,0x404d60
bb.factor_using_pollard_rho,0x403e30
bb.factor_using_pollard_rho2,0x404720
bb.prime2_p,0x4041b0
bb.prime_p,0x403b80
bb.factor,0x403ab0
bb.factor_using_division,0x4036a0
bb.factor_insert_refind.constprop.7,0x403630
bb.lbuf_putc.constprop.0,0x403480
bb.lbuf_putc,0x403390
bb.mod2,0x403120
bb.gcd2_odd,0x402ff0
bb.millerrabin2,0x402e80
bb.powm2,0x402cd0
bb.mulredc2,0x402b10
bb.millerrabin,0x402910
bb.powm,0x4028a0
bb.mulredc,0x402870
bb.factor_insert_multiplicity,0x4027e0
bb.usage,0x4050f0
bb.print_factors,0x404e30
bb.strto2uintmax,0x402a30
bb.do_stdin,0x404ee0
bb.lbuf_alloc,0x402a00
