bb.process_field,0x404900
bb.process_suffixed_number,0x4046d0
bb.prepare_padded_number,0x404090
bb.double_to_human.constprop.0,0x403b80
bb.valid_suffix,0x403ad0
bb.simple_round,0x403050
bb.simple_round_to_zero,0x402fb0
bb.simple_round_floor,0x402f70
bb.simple_round_ceiling,0x402f30
bb.suffix_power_char,0x402e40
bb.suffix_power,0x402e20
bb.process_line,0x4049b0
bb.unit_to_umax,0x403440
bb.usage,0x404c20
bb.parse_format_string,0x403650
