bb.usage,0x40355d
bb.who,0x4034d9
bb.scan_entries,0x403333
bb.print_deadprocs,0x403262
bb.print_login,0x4031ea
bb.print_initspawn,0x403172
bb.make_id_equals_comment,0x403141
bb.print_clockchange,0x4030fd
bb.print_boottime,0x4030b9
bb.print_runlevel,0x402fa8
bb.print_user,0x402c92
bb.print_heading,0x402b0e
bb.print_line,0x402903
bb.list_entries_who,0x402863
bb.extract_trimmed_name,0x406894
bb.time_string,0x402c3f
bb.idle_string,0x402b50
